2;0;37;0;0;0;1;0;0;0;0;0;0;0;0;0
3;0;113;0;3;0;70;0;68;0;160;1;61;0;20;0
3;0;182;1;3;0;68;0;68;0;160;1;60;0;16;0
3;0;181;1;3;0;52;0;68;0;160;1;61;0;18;0
3;0;113;0;3;0;70;0;68;0;160;1;61;0;20;0
3;0;252;1;3;0;47;0;68;0;160;1;61;0;26;0
3;0;252;1;3;0;47;0;68;0;128;1;60;0;27;0
3;0;253;1;3;0;47;0;68;0;128;1;61;0;35;0
3;0;253;1;3;0;39;0;68;0;128;1;61;0;35;0
3;0;250;1;3;0;31;0;68;0;128;1;61;0;42;0
3;0;255;1;3;0;55;0;68;0;128;1;61;0;56;0
3;0;252;1;3;0;47;0;68;0;128;1;61;0;38;0
3;0;249;1;3;0;57;0;68;0;128;1;61;0;30;0
2;0;37;0;0;0;1;0;0;0;0;0;0;0;0;0
2;0;37;0;0;0;1;0;0;0;0;0;0;0;0;0
3;0;249;1;3;0;44;0;68;0;160;1;61;0;255;1
3;0;230;1;3;0;45;0;68;0;160;1;61;0;20;0
3;0;113;0;3;0;62;0;68;0;160;1;61;0;43;0
3;0;211;1;3;0;67;0;68;0;160;1;61;0;31;0
3;0;59;0;4;0;30;0;68;0;160;1;61;0;73;0
3;0;83;0;4;0;36;0;68;0;192;1;61;0;255;1
3;0;104;0;4;0;28;0;68;0;192;1;61;0;255;1
3;0;135;1;4;0;27;0;68;0;192;1;61;0;255;1
3;0;171;1;4;0;21;0;68;0;192;1;61;0;255;1
3;0;224;1;4;0;44;0;68;0;192;1;60;0;255;1
3;0;6;0;5;0;30;0;68;0;192;1;61;0;255;1
3;0;68;0;5;0;47;0;68;0;192;1;61;0;255;1
3;0;125;0;5;0;48;0;68;0;192;1;61;0;255;1
3;0;192;1;5;0;60;0;68;0;192;1;61;0;255;1
3;0;238;1;5;0;35;0;68;0;128;1;61;0;101;0
3;0;70;0;6;0;61;0;68;0;192;1;61;0;255;1
3;0;136;1;6;0;59;0;68;0;192;1;60;0;255;1
3;0;206;1;6;0;55;0;68;0;192;1;60;0;255;1
3;0;24;0;7;0;57;0;68;0;192;1;62;0;255;1
3;0;107;0;7;0;69;0;68;0;192;1;62;0;255;1
3;0;167;1;7;0;61;0;68;0;192;1;62;0;255;1
3;0;10;0;8;0;83;0;68;0;192;1;62;0;255;1
3;0;80;0;8;0;78;0;68;0;192;1;62;0;255;1
3;0;144;1;8;0;66;0;68;0;128;1;62;0;209;1
3;0;238;1;8;0;73;0;68;0;128;1;62;0;205;1
3;0;69;0;9;0;76;0;68;0;192;1;61;0;255;1
3;0;141;1;9;0;72;0;68;0;192;1;61;0;255;1
3;0;230;1;9;0;80;0;68;0;192;1;61;0;255;1
3;0;46;0;10;0;76;0;68;0;192;1;60;0;255;1
3;0;135;1;10;0;81;0;68;0;192;1;61;0;255;1
3;0;200;1;10;0;70;0;68;0;192;1;60;0;255;1
3;0;11;0;11;0;62;0;68;0;192;1;61;0;255;1
3;0;108;0;11;0;71;0;68;0;192;1;60;0;255;1
3;0;193;1;11;0;74;0;68;0;192;1;62;0;238;1
3;0;90;0;12;0;67;0;68;0;193;1;62;0;255;1
3;0;168;1;12;0;62;0;68;0;192;1;61;0;255;1
3;0;246;1;12;0;56;0;68;0;192;1;62;0;255;1
3;0;57;0;13;0;45;0;68;0;192;1;62;0;255;1
3;0;151;1;13;0;42;0;68;0;192;1;62;0;255;1
3;0;237;1;13;0;36;0;68;0;192;1;62;0;255;1
3;0;55;0;14;0;25;0;68;0;192;1;61;0;255;1
3;0;138;1;14;0;15;0;68;0;192;1;60;0;255;1
3;0;220;1;14;0;4;0;68;0;192;1;60;0;255;1
3;0;46;0;15;0;248;1;67;0;192;1;60;0;255;1
3;0;140;1;15;0;239;1;67;0;192;1;61;0;255;1
3;0;214;1;15;0;224;1;67;0;192;1;61;0;255;1
3;0;44;0;16;0;212;1;67;0;192;1;61;0;255;1
3;0;137;1;16;0;203;1;67;0;192;1;61;0;255;1
3;0;211;1;16;0;187;1;67;0;192;1;62;0;255;1
3;0;44;0;17;0;176;1;67;0;192;1;62;0;255;1
3;0;121;0;17;0;162;1;67;0;192;1;62;0;255;1
3;0;215;1;17;0;151;1;67;0;192;1;62;0;255;1
3;0;28;0;18;0;133;1;67;0;192;1;62;0;255;1
3;0;125;0;18;0;120;0;67;0;192;1;62;0;255;1
3;0;210;1;18;0;101;0;67;0;192;1;61;0;255;1
3;0;43;0;19;0;82;0;67;0;192;1;60;0;255;1
3;0;121;0;19;0;62;0;67;0;192;1;60;0;255;1
3;0;217;1;19;0;44;0;67;0;192;1;61;0;255;1
3;0;38;0;20;0;22;0;67;0;192;1;61;0;255;1
3;0;131;1;20;0;3;0;67;0;192;1;61;0;255;1
3;0;208;1;20;0;235;1;66;0;192;1;61;0;255;1
3;0;44;0;21;0;214;1;66;0;192;1;61;0;255;1
3;0;116;0;21;0;190;1;66;0;192;1;60;0;255;1
3;0;193;1;21;0;168;1;66;0;192;1;61;0;255;1
3;0;29;0;22;0;149;1;66;0;192;1;61;0;255;1
3;0;109;0;22;0;127;0;66;0;192;1;60;0;255;1
3;0;185;1;22;0;104;0;66;0;192;1;62;0;255;1
3;0;12;0;23;0;82;0;66;0;192;1;62;0;255;1
3;0;84;0;23;0;57;0;66;0;192;1;62;0;255;1
3;0;168;1;23;0;33;0;66;0;192;1;61;0;255;1
3;0;239;1;23;0;9;0;66;0;192;1;61;0;255;1
3;0;75;0;24;0;243;1;65;0;192;1;61;0;255;1
3;0;146;1;24;0;217;1;65;0;192;1;61;0;255;1
3;0;233;1;24;0;195;1;65;0;192;1;61;0;255;1
3;0;48;0;25;0;172;1;65;0;192;1;61;0;255;1
3;0;112;0;25;0;148;1;65;0;192;1;61;0;255;1
3;0;207;1;25;0;126;0;65;0;192;1;61;0;255;1
3;0;38;0;26;0;104;0;65;0;192;1;61;0;255;1
3;0;109;0;26;0;83;0;65;0;192;1;61;0;255;1
3;0;180;1;26;0;62;0;65;0;192;1;60;0;255;1
3;0;7;0;27;0;44;0;65;0;192;1;60;0;255;1
3;0;86;0;27;0;27;0;65;0;192;1;61;0;255;1
3;0;133;1;27;0;11;0;65;0;192;1;61;0;255;1
3;0;232;1;27;0;253;1;64;0;192;1;61;0;255;1
3;0;48;0;28;0;238;1;64;0;192;1;61;0;255;1
3;0;127;0;28;0;225;1;64;0;192;1;60;0;255;1
3;0;190;1;28;0;214;1;64;0;192;1;61;0;255;1
3;0;30;0;29;0;203;1;64;0;192;1;61;0;255;1
3;0;93;0;29;0;193;1;64;0;192;1;60;0;255;1
3;0;189;1;29;0;183;1;64;0;192;1;60;0;255;1
3;0;0;0;30;0;170;1;64;0;192;1;60;0;255;1
3;0;79;0;30;0;155;1;64;0;192;1;61;0;255;1
3;0;150;1;30;0;141;1;64;0;192;1;61;0;255;1
3;0;205;1;30;0;124;0;64;0;192;1;61;0;255;1
3;0;48;0;31;0;103;0;64;0;192;1;60;0;255;1
3;0;135;1;31;0;82;0;64;0;192;1;61;0;255;1
3;0;205;1;31;0;59;0;64;0;192;1;60;0;255;1
3;0;31;0;32;0;33;0;64;0;192;1;61;0;255;1
3;0;97;0;32;0;8;0;64;0;192;1;60;0;255;1
3;0;175;1;32;0;240;1;63;0;192;1;61;0;255;1
3;0;225;1;32;0;212;1;63;0;192;1;61;0;255;1
3;0;55;0;33;0;184;1;63;0;192;1;61;0;255;1
3;0;128;1;33;0;150;1;63;0;192;1;61;0;255;1
3;0;206;1;33;0;121;0;63;0;192;1;61;0;255;1
3;0;255;1;33;0;89;0;63;0;192;1;60;0;255;1
3;0;52;0;34;0;63;0;63;0;192;1;61;0;255;1
3;0;59;0;34;0;54;0;63;0;192;1;61;0;255;1
3;0;59;0;34;0;55;0;63;0;192;1;60;0;255;1
3;0;59;0;34;0;53;0;63;0;192;1;61;0;255;1
3;0;47;0;34;0;56;0;63;0;192;1;61;0;255;1
3;0;44;0;34;0;60;0;63;0;192;1;17;0;255;1
3;0;8;0;34;0;69;0;63;0;192;1;16;0;244;1
3;0;188;1;33;0;102;0;63;0;192;1;16;0;201;1
3;0;111;0;33;0;146;1;63;0;192;1;16;0;255;1
3;0;0;0;33;0;198;1;63;0;192;1;18;0;255;1
3;0;160;1;32;0;251;1;63;0;192;1;92;0;255;1
