3;0;2;0;22;0;178;1;63;0;231;1;61;0;255;1
3;0;254;1;21;0;182;1;63;0;192;1;61;0;255;1
3;0;246;1;21;0;181;1;63;0;192;1;60;0;255;1
3;0;254;1;21;0;178;1;63;0;192;1;62;0;255;1
3;0;244;1;21;0;166;1;63;0;192;1;61;0;255;1
3;0;5;0;22;0;144;1;63;0;192;1;62;0;255;1
3;0;4;0;22;0;118;0;63;0;192;1;62;0;255;1
3;0;28;0;22;0;87;0;63;0;192;1;62;0;255;1
3;0;38;0;22;0;52;0;63;0;192;1;61;0;255;1
3;0;71;0;22;0;11;0;63;0;192;1;61;0;255;1
3;0;91;0;22;0;221;1;62;0;192;1;61;0;255;1
3;0;133;1;22;0;167;1;62;0;192;1;61;0;255;1
3;0;142;1;22;0;110;0;62;0;192;1;61;0;255;1
3;0;208;1;22;0;41;0;62;0;192;1;61;0;255;1
3;0;241;1;22;0;226;1;61;0;192;1;60;0;255;1
3;0;16;0;23;0;152;1;61;0;192;1;61;0;255;1
3;0;74;0;23;0;72;0;61;0;192;1;61;0;255;1
3;0;107;0;23;0;249;1;60;0;192;1;62;0;255;1
3;0;163;1;23;0;168;1;60;0;192;1;62;0;255;1
3;0;207;1;23;0;93;0;60;0;192;1;62;0;255;1
3;0;245;1;23;0;26;0;60;0;192;1;62;0;255;1
3;0;33;0;24;0;221;1;59;0;192;1;60;0;255;1
3;0;63;0;24;0;170;1;59;0;192;1;61;0;255;1
3;0;97;0;24;0;123;0;59;0;192;1;60;0;255;1
3;0;104;0;24;0;92;0;59;0;192;1;61;0;255;1
3;0;119;0;24;0;76;0;59;0;192;1;60;0;255;1
3;0;88;0;24;0;84;0;59;0;192;1;61;0;255;1
3;0;97;0;24;0;98;0;59;0;192;1;17;0;255;1
3;0;66;0;24;0;142;1;59;0;192;1;18;0;255;1
3;0;46;0;24;0;198;1;59;0;192;1;17;0;255;1
3;0;6;0;24;0;13;0;60;0;192;1;17;0;255;1
3;0;229;1;23;0;96;0;60;0;192;1;17;0;255;1
3;0;177;1;23;0;189;1;60;0;192;1;17;0;255;1
3;0;124;0;21;0;61;0;64;0;231;1;62;0;255;1
3;0;127;0;21;0;57;0;64;0;192;1;61;0;255;1
3;0;150;1;21;0;47;0;64;0;192;1;61;0;255;1
3;0;165;1;21;0;33;0;64;0;192;1;61;0;255;1
3;0;199;1;21;0;16;0;64;0;192;1;61;0;255;1
3;0;224;1;21;0;252;1;63;0;192;1;61;0;255;1
3;0;13;0;22;0;228;1;63;0;192;1;61;0;255;1
3;0;50;0;22;0;203;1;63;0;192;1;61;0;255;1
3;0;111;0;22;0;179;1;63;0;192;1;61;0;255;1
3;0;160;1;22;0;151;1;63;0;192;1;61;0;255;1
3;0;224;1;22;0;124;0;63;0;192;1;61;0;255;1
3;0;32;0;23;0;94;0;63;0;192;1;61;0;255;1
3;0;96;0;23;0;62;0;63;0;192;1;62;0;255;1
3;0;167;1;23;0;29;0;63;0;192;1;62;0;255;1
3;0;243;1;23;0;249;1;62;0;192;1;61;0;255;1
3;0;62;0;24;0;216;1;62;0;192;1;61;0;255;1
3;0;145;1;24;0;182;1;62;0;192;1;61;0;255;1
3;0;213;1;24;0;150;1;62;0;192;1;61;0;255;1
3;0;28;0;25;0;116;0;62;0;192;1;60;0;255;1
3;0;103;0;25;0;84;0;62;0;192;1;61;0;255;1
3;0;174;1;25;0;51;0;62;0;192;1;60;0;255;1
3;0;242;1;25;0;24;0;62;0;192;1;61;0;255;1
3;0;51;0;26;0;0;0;62;0;192;1;60;0;255;1
3;0;112;0;26;0;235;1;61;0;192;1;60;0;255;1
3;0;170;1;26;0;218;1;61;0;192;1;61;0;255;1
3;0;192;1;26;0;207;1;61;0;192;1;61;0;255;1
3;0;223;1;26;0;199;1;61;0;192;1;62;0;255;1
3;0;238;1;26;0;191;1;61;0;192;1;61;0;255;1
3;0;233;1;26;0;189;1;61;0;192;1;16;0;255;1
3;0;209;1;26;0;192;1;61;0;192;1;16;0;255;1
3;0;177;1;26;0;193;1;61;0;192;1;17;0;255;1
3;0;116;0;26;0;197;1;61;0;192;1;17;0;255;1
3;0;76;0;26;0;198;1;61;0;192;1;18;0;255;1
3;0;3;0;26;0;201;1;61;0;192;1;92;0;255;1
3;0;236;1;22;0;123;0;61;0;231;1;61;0;255;1
3;0;220;1;22;0;125;0;61;0;192;1;61;0;255;1
3;0;245;1;22;0;123;0;61;0;192;1;62;0;255;1
3;0;230;1;22;0;130;1;61;0;192;1;62;0;255;1
3;0;12;0;23;0;135;1;61;0;192;1;62;0;255;1
3;0;11;0;23;0;148;1;61;0;192;1;62;0;255;1
3;0;48;0;23;0;161;1;61;0;192;1;61;0;255;1
3;0;60;0;23;0;180;1;61;0;192;1;61;0;255;1
3;0;66;0;23;0;202;1;61;0;192;1;61;0;255;1
3;0;108;0;23;0;224;1;61;0;192;1;61;0;255;1
3;0;143;1;23;0;250;1;61;0;192;1;61;0;255;1
3;0;154;1;23;0;25;0;62;0;192;1;61;0;255;1
3;0;204;1;23;0;51;0;62;0;192;1;61;0;255;1
3;0;215;1;23;0;84;0;62;0;192;1;60;0;255;1
3;0;254;1;23;0;116;0;62;0;192;1;61;0;255;1
3;0;17;0;24;0;149;1;62;0;192;1;61;0;255;1
3;0;35;0;24;0;182;1;62;0;192;1;61;0;255;1
3;0;78;0;24;0;213;1;62;0;192;1;62;0;255;1
3;0;119;0;24;0;242;1;62;0;192;1;61;0;255;1
3;0;132;1;24;0;13;0;63;0;192;1;60;0;255;1
3;0;139;1;24;0;35;0;63;0;192;1;61;0;255;1
3;0;174;1;24;0;46;0;63;0;192;1;17;0;255;1
3;0;171;1;24;0;55;0;63;0;192;1;17;0;255;1
3;0;167;1;24;0;57;0;63;0;192;1;17;0;255;1
3;0;150;1;24;0;53;0;63;0;192;1;17;0;255;1
3;0;128;1;24;0;37;0;63;0;192;1;17;0;255;1
