3;0;184;1;7;0;36;0;72;0;167;1;61;0;20;0
3;0;117;0;7;0;128;1;72;0;128;1;60;0;16;0
3;0;17;0;8;0;134;1;72;0;160;1;61;0;175;1
3;0;43;0;8;0;159;1;72;0;128;1;61;0;163;1
3;0;77;0;8;0;199;1;72;0;128;1;62;0;206;1
3;0;103;0;8;0;224;1;72;0;128;1;61;0;191;1
3;0;140;1;8;0;11;0;73;0;128;1;62;0;219;1
3;0;161;1;8;0;30;0;73;0;128;1;62;0;248;1
3;0;201;1;8;0;80;0;73;0;128;1;62;0;255;1
3;0;222;1;8;0;99;0;73;0;128;1;62;0;255;1
3;0;0;0;9;0;138;1;73;0;128;1;61;0;255;1
3;0;29;0;9;0;171;1;73;0;192;1;61;0;255;1
3;0;62;0;9;0;211;1;73;0;192;1;61;0;255;1
3;0;83;0;9;0;231;1;73;0;192;1;60;0;255;1
3;0;111;0;9;0;3;0;74;0;192;1;61;0;255;1
3;0;134;1;9;0;25;0;74;0;192;1;61;0;255;1
3;0;175;1;9;0;75;0;74;0;192;1;60;0;255;1
3;0;204;1;9;0;103;0;74;0;192;1;60;0;255;1
3;0;241;1;9;0;145;1;74;0;192;1;61;0;255;1
3;0;12;0;10;0;169;1;74;0;192;1;62;0;255;1
3;0;48;0;10;0;207;1;74;0;192;1;62;0;239;1
3;0;74;0;10;0;227;1;74;0;192;1;62;0;174;1
3;0;104;0;10;0;254;1;74;0;192;1;61;0;231;1
3;0;137;1;10;0;28;0;75;0;128;1;61;0;116;0
3;0;172;1;10;0;62;0;75;0;128;1;61;0;140;1
3;0;197;1;10;0;83;0;75;0;128;1;61;0;98;0
3;0;220;1;10;0;100;0;75;0;128;1;61;0;114;0
3;0;4;0;11;0;140;1;75;0;128;1;61;0;79;0
3;0;34;0;11;0;167;1;75;0;128;1;61;0;104;0
3;0;67;0;11;0;196;1;75;0;128;1;61;0;78;0
3;0;101;0;11;0;230;1;75;0;128;1;61;0;142;1
3;0;123;0;11;0;243;1;75;0;128;1;61;0;105;0
3;0;150;1;11;0;11;0;76;0;128;1;62;0;138;1
3;0;190;1;11;0;51;0;76;0;128;1;62;0;116;0
3;0;224;1;11;0;85;0;76;0;192;1;62;0;186;1
3;0;250;1;11;0;105;0;76;0;128;1;62;0;126;0
3;0;34;0;12;0;133;1;76;0;128;1;61;0;84;0
3;0;51;0;12;0;156;1;76;0;128;1;61;0;131;1
3;0;85;0;12;0;190;1;76;0;128;1;61;0;156;1
3;0;106;0;12;0;208;1;76;0;128;1;61;0;201;1
3;0;140;1;12;0;227;1;76;0;128;1;61;0;59;0
3;0;162;1;12;0;245;1;76;0;128;1;60;0;64;0
3;0;192;1;12;0;21;0;77;0;128;1;61;0;93;0
3;0;208;1;12;0;34;0;77;0;128;1;61;0;97;0
3;0;226;1;12;0;50;0;77;0;128;1;60;0;54;0
3;0;246;1;12;0;70;0;77;0;128;1;62;0;52;0
3;0;10;0;13;0;89;0;77;0;128;1;62;0;73;0
3;0;28;0;13;0;105;0;77;0;128;1;62;0;54;0
3;0;49;0;13;0;129;1;77;0;128;1;62;0;59;0
3;0;59;0;13;0;137;1;77;0;128;1;62;0;58;0
3;0;73;0;13;0;150;1;77;0;128;1;61;0;56;0
3;0;88;0;13;0;165;1;77;0;128;1;61;0;42;0
3;0;107;0;13;0;185;1;77;0;128;1;61;0;52;0
3;0;117;0;13;0;192;1;77;0;128;1;61;0;50;0
3;0;136;1;13;0;212;1;77;0;128;1;61;0;51;0
3;0;143;1;13;0;217;1;77;0;128;1;61;0;50;0
3;0;151;1;13;0;226;1;77;0;128;1;17;0;68;0
3;0;154;1;13;0;234;1;77;0;128;1;17;0;63;0
3;0;159;1;13;0;251;1;77;0;128;1;17;0;86;0
3;0;134;1;13;0;252;1;77;0;192;1;17;0;255;1
3;0;84;0;13;0;226;1;77;0;225;1;17;0;255;1
3;0;54;0;17;0;135;1;80;0;167;1;62;0;215;1
3;0;72;0;17;0;134;1;80;0;128;1;62;0;126;0
2;0;38;0;0;0;3;0;80;0;128;1;61;0;45;0
3;0;95;0;17;0;99;0;80;0;128;1;61;0;64;0
3;0;102;0;17;0;76;0;80;0;128;1;61;0;79;0
3;0;124;0;17;0;70;0;80;0;128;1;61;0;103;0
3;0;138;1;17;0;55;0;80;0;192;1;61;0;251;1
3;0;156;1;17;0;49;0;80;0;192;1;61;0;255;1
3;0;156;1;17;0;20;0;80;0;192;1;61;0;255;1
3;0;174;1;17;0;13;0;80;0;192;1;60;0;255;1
3;0;176;1;17;0;243;1;79;0;192;1;61;0;225;1
3;0;195;1;17;0;246;1;79;0;224;1;60;0;255;1
3;0;196;1;17;0;222;1;79;0;160;1;61;0;255;1
3;0;209;1;17;0;213;1;79;0;224;1;62;0;255;1
3;0;221;1;17;0;200;1;79;0;192;1;62;0;255;1
3;0;226;1;17;0;172;1;79;0;192;1;61;0;255;1
3;0;254;1;17;0;165;1;79;0;192;1;61;0;255;1
3;0;20;0;18;0;158;1;79;0;128;1;61;0;79;0
3;0;31;0;18;0;127;0;79;0;128;1;61;0;67;0
3;0;52;0;18;0;103;0;79;0;128;1;61;0;82;0
3;0;75;0;18;0;83;0;79;0;128;1;61;0;149;1
3;0;96;0;18;0;59;0;79;0;192;1;61;0;255;1
3;0;120;0;18;0;43;0;79;0;224;1;61;0;255;1
3;0;145;1;18;0;25;0;79;0;192;1;61;0;255;1
3;0;155;1;18;0;251;1;78;0;192;1;60;0;255;1
3;0;165;1;18;0;219;1;78;0;192;1;61;0;255;1
3;0;203;1;18;0;210;1;78;0;192;1;60;0;255;1
3;0;231;1;18;0;188;1;78;0;192;1;62;0;255;1
3;0;246;1;18;0;155;1;78;0;192;1;61;0;239;1
3;0;19;0;19;0;131;1;78;0;192;1;61;0;255;1
3;0;33;0;19;0;92;0;78;0;192;1;60;0;255;1
3;0;71;0;19;0;75;0;78;0;192;1;61;0;255;1
3;0;87;0;19;0;41;0;78;0;192;1;60;0;255;1
3;0;127;0;19;0;26;0;78;0;192;1;61;0;255;1
3;0;145;1;19;0;250;1;77;0;192;1;61;0;255;1
3;0;164;1;19;0;216;1;77;0;192;1;61;0;255;1
3;0;188;1;19;0;181;1;77;0;192;1;61;0;255;1
3;0;225;1;19;0;163;1;77;0;192;1;61;0;255;1
3;0;2;0;20;0;142;1;77;0;192;1;61;0;255;1
3;0;29;0;20;0;116;0;77;0;192;1;61;0;255;1
3;0;52;0;20;0;82;0;77;0;192;1;62;0;255;1
3;0;77;0;20;0;57;0;77;0;192;1;62;0;255;1
3;0;96;0;20;0;26;0;77;0;192;1;61;0;255;1
3;0;127;0;20;0;6;0;77;0;192;1;61;0;255;1
3;0;145;1;20;0;233;1;76;0;192;1;60;0;255;1
3;0;172;1;20;0;211;1;76;0;192;1;60;0;255;1
3;0;194;1;20;0;182;1;76;0;192;1;61;0;255;1
3;0;224;1;20;0;162;1;76;0;192;1;61;0;255;1
3;0;245;1;20;0;134;1;76;0;192;1;60;0;255;1
3;0;15;0;21;0;105;0;76;0;192;1;61;0;255;1
3;0;35;0;21;0;78;0;76;0;192;1;60;0;255;1
3;0;64;0;21;0;57;0;76;0;192;1;61;0;255;1
3;0;87;0;21;0;31;0;76;0;192;1;60;0;255;1
3;0;117;0;21;0;10;0;76;0;192;1;62;0;255;1
3;0;132;1;21;0;236;1;75;0;192;1;62;0;255;1
3;0;166;1;21;0;214;1;75;0;192;1;61;0;255;1
3;0;186;1;21;0;183;1;75;0;192;1;61;0;255;1
3;0;210;1;21;0;154;1;75;0;192;1;61;0;255;1
3;0;235;1;21;0;129;1;75;0;192;1;61;0;255;1
3;0;12;0;22;0;107;0;75;0;192;1;61;0;255;1
3;0;13;0;22;0;69;0;75;0;192;1;61;0;255;1
3;0;62;0;22;0;59;0;75;0;192;1;61;0;255;1
3;0;80;0;22;0;29;0;75;0;192;1;61;0;255;1
3;0;104;0;22;0;3;0;75;0;192;1;61;0;255;1
3;0;134;1;22;0;232;1;74;0;192;1;61;0;255;1
3;0;163;1;22;0;206;1;74;0;192;1;61;0;255;1
3;0;189;1;22;0;175;1;74;0;192;1;61;0;255;1
3;0;215;1;22;0;145;1;74;0;192;1;62;0;255;1
3;0;237;1;22;0;112;0;74;0;192;1;62;0;255;1
3;0;24;0;23;0;90;0;74;0;192;1;61;0;255;1
3;0;50;0;23;0;57;0;74;0;192;1;61;0;255;1
3;0;87;0;23;0;27;0;74;0;192;1;61;0;255;1
3;0;114;0;23;0;246;1;73;0;192;1;61;0;255;1
3;0;156;1;23;0;214;1;73;0;192;1;61;0;255;1
3;0;182;1;23;0;175;1;73;0;192;1;61;0;255;1
3;0;226;1;23;0;146;1;73;0;192;1;61;0;255;1
3;0;252;1;23;0;107;0;73;0;192;1;61;0;255;1
3;0;33;0;24;0;74;0;73;0;192;1;61;0;255;1
3;0;65;0;24;0;37;0;73;0;192;1;61;0;255;1
3;0;108;0;24;0;8;0;73;0;192;1;61;0;255;1
3;0;128;1;24;0;226;1;72;0;192;1;60;0;255;1
3;0;170;1;24;0;198;1;72;0;192;1;62;0;255;1
3;0;197;1;24;0;162;1;72;0;192;1;61;0;255;1
3;0;226;1;24;0;132;1;72;0;192;1;61;0;255;1
3;0;3;0;25;0;103;0;72;0;192;1;61;0;255;1
3;0;39;0;25;0;76;0;72;0;192;1;61;0;255;1
3;0;45;0;25;0;39;0;72;0;192;1;61;0;255;1
3;0;96;0;25;0;17;0;72;0;192;1;61;0;255;1
3;0;116;0;25;0;241;1;71;0;192;1;61;0;255;1
3;0;132;1;25;0;210;1;71;0;192;1;61;0;255;1
3;0;171;1;25;0;187;1;71;0;192;1;61;0;255;1
3;0;182;1;25;0;154;1;71;0;192;1;61;0;255;1
3;0;224;1;25;0;134;1;71;0;192;1;61;0;255;1
3;0;242;1;25;0;105;0;71;0;192;1;61;0;255;1
3;0;4;0;26;0;78;0;71;0;192;1;62;0;255;1
3;0;53;0;26;0;59;0;71;0;192;1;62;0;255;1
3;0;71;0;26;0;32;0;71;0;192;1;61;0;255;1
3;0;96;0;26;0;7;0;71;0;192;1;60;0;255;1
3;0;126;0;26;0;238;1;70;0;192;1;60;0;255;1
3;0;147;1;26;0;210;1;70;0;192;1;60;0;255;1
3;0;176;1;26;0;185;1;70;0;192;1;61;0;255;1
3;0;201;1;26;0;158;1;70;0;192;1;60;0;255;1
3;0;223;1;26;0;129;1;70;0;192;1;60;0;255;1
3;0;255;1;26;0;105;0;70;0;192;1;60;0;255;1
3;0;28;0;27;0;78;0;70;0;192;1;61;0;255;1
3;0;64;0;27;0;54;0;70;0;192;1;61;0;255;1
3;0;85;0;27;0;23;0;70;0;192;1;60;0;255;1
3;0;113;0;27;0;252;1;69;0;192;1;60;0;255;1
3;0;138;1;27;0;221;1;69;0;192;1;62;0;255;1
3;0;174;1;27;0;195;1;69;0;192;1;60;0;255;1
3;0;198;1;27;0;163;1;69;0;192;1;61;0;255;1
3;0;230;1;27;0;132;1;69;0;192;1;61;0;255;1
3;0;242;1;27;0;96;0;69;0;192;1;61;0;255;1
3;0;38;0;28;0;67;0;69;0;192;1;60;0;255;1
3;0;74;0;28;0;35;0;69;0;192;1;61;0;255;1
3;0;113;0;28;0;5;0;69;0;192;1;61;0;255;1
3;0;120;0;28;0;223;1;68;0;192;1;61;0;255;1
3;0;175;1;28;0;194;1;68;0;192;1;61;0;255;1
3;0;206;1;28;0;160;1;68;0;192;1;61;0;255;1
3;0;249;1;28;0;128;1;68;0;192;1;61;0;255;1
3;0;20;0;29;0;96;0;68;0;192;1;61;0;255;1
3;0;54;0;29;0;65;0;68;0;192;1;62;0;255;1
3;0;80;0;29;0;33;0;68;0;192;1;61;0;255;1
3;0;110;0;29;0;1;0;68;0;192;1;61;0;255;1
3;0;140;1;29;0;228;1;67;0;192;1;60;0;255;1
3;0;169;1;29;0;199;1;67;0;192;1;60;0;255;1
3;0;202;1;29;0;169;1;67;0;192;1;61;0;255;1
3;0;244;1;29;0;141;1;67;0;192;1;61;0;255;1
3;0;13;0;30;0;111;0;67;0;192;1;61;0;255;1
3;0;54;0;30;0;83;0;67;0;192;1;61;0;255;1
3;0;75;0;30;0;50;0;67;0;192;1;60;0;255;1
3;0;115;0;30;0;21;0;67;0;192;1;61;0;255;1
3;0;136;1;30;0;246;1;66;0;192;1;61;0;255;1
3;0;176;1;30;0;215;1;66;0;192;1;61;0;255;1
3;0;201;1;30;0;185;1;66;0;192;1;60;0;255;1
3;0;241;1;30;0;153;1;66;0;192;1;61;0;255;1
3;0;5;0;31;0;121;0;66;0;192;1;61;0;255;1
3;0;45;0;31;0;93;0;66;0;192;1;61;0;255;1
3;0;64;0;31;0;63;0;66;0;192;1;61;0;255;1
3;0;104;0;31;0;37;0;66;0;192;1;61;0;255;1
3;0;108;0;31;0;9;0;66;0;192;1;61;0;255;1
3;0;159;1;31;0;238;1;65;0;192;1;61;0;255;1
3;0;182;1;31;0;206;1;65;0;192;1;61;0;255;1
3;0;214;1;31;0;178;1;65;0;192;1;61;0;255;1
3;0;245;1;31;0;153;1;65;0;192;1;61;0;255;1
3;0;32;0;32;0;124;0;65;0;192;1;61;0;255;1
3;0;51;0;32;0;98;0;65;0;192;1;61;0;255;1
3;0;66;0;32;0;72;0;65;0;192;1;61;0;255;1
3;0;101;0;32;0;48;0;65;0;192;1;60;0;255;1
3;0;136;1;32;0;26;0;65;0;192;1;61;0;255;1
3;0;151;1;32;0;2;0;65;0;192;1;61;0;255;1
3;0;161;1;32;0;235;1;64;0;192;1;61;0;255;1
3;0;200;1;32;0;214;1;64;0;192;1;61;0;255;1
3;0;227;1;32;0;194;1;64;0;128;1;61;0;255;1
3;0;230;1;32;0;176;1;64;0;192;1;61;0;255;1
3;0;13;0;33;0;158;1;64;0;192;1;61;0;255;1
3;0;24;0;33;0;139;1;64;0;192;1;61;0;255;1
3;0;31;0;33;0;121;0;64;0;192;1;61;0;255;1
3;0;41;0;33;0;104;0;64;0;192;1;61;0;255;1
3;0;84;0;33;0;86;0;64;0;192;1;61;0;255;1
3;0;107;0;33;0;63;0;64;0;192;1;61;0;255;1
3;0;121;0;33;0;43;0;64;0;192;1;60;0;255;1
3;0;131;1;33;0;22;0;64;0;192;1;61;0;255;1
3;0;150;1;33;0;0;0;64;0;192;1;61;0;255;1
3;0;188;1;33;0;237;1;63;0;192;1;61;0;255;1
3;0;219;1;33;0;216;1;63;0;192;1;61;0;255;1
3;0;233;1;33;0;197;1;63;0;192;1;60;0;255;1
3;0;3;0;34;0;179;1;63;0;192;1;60;0;255;1
3;0;18;0;34;0;159;1;63;0;192;1;61;0;255;1
3;0;40;0;34;0;139;1;63;0;192;1;60;0;255;1
3;0;58;0;34;0;120;0;63;0;192;1;61;0;255;1
3;0;85;0;34;0;104;0;63;0;192;1;60;0;255;1
3;0;95;0;34;0;88;0;63;0;192;1;61;0;255;1
3;0;118;0;34;0;73;0;63;0;192;1;60;0;255;1
3;0;106;0;34;0;74;0;63;0;192;1;60;0;255;1
3;0;113;0;34;0;72;0;63;0;192;1;61;0;255;1
3;0;105;0;34;0;72;0;63;0;192;1;61;0;255;1
3;0;105;0;34;0;70;0;63;0;192;1;60;0;255;1
3;0;101;0;34;0;71;0;63;0;192;1;60;0;255;1
3;0;113;0;34;0;69;0;63;0;192;1;60;0;255;1
3;0;104;0;34;0;63;0;63;0;192;1;17;0;255;1
3;0;115;0;34;0;46;0;63;0;192;1;17;0;255;1
3;0;91;0;34;0;51;0;63;0;192;1;18;0;255;1
3;0;45;0;34;0;72;0;63;0;192;1;18;0;255;1
3;0;248;1;33;0;100;0;63;0;192;1;17;0;255;1
3;0;194;1;33;0;129;1;63;0;192;1;17;0;255;1
3;0;118;0;34;0;39;0;63;0;231;1;61;0;255;1
3;0;126;0;34;0;40;0;63;0;192;1;60;0;255;1
3;0;118;0;34;0;40;0;63;0;192;1;61;0;255;1
3;0;126;0;34;0;40;0;63;0;192;1;61;0;255;1
3;0;98;0;34;0;39;0;63;0;192;1;61;0;255;1
3;0;118;0;34;0;37;0;63;0;128;1;60;0;255;1
3;0;114;0;34;0;37;0;63;0;192;1;60;0;255;1
3;0;122;0;34;0;36;0;63;0;192;1;61;0;255;1
3;0;117;0;34;0;34;0;63;0;192;1;61;0;255;1
3;0;125;0;34;0;33;0;63;0;192;1;61;0;255;1
3;0;113;0;34;0;33;0;63;0;192;1;60;0;255;1
3;0;117;0;34;0;30;0;63;0;192;1;61;0;255;1
3;0;104;0;34;0;22;0;63;0;192;1;61;0;255;1
3;0;102;0;34;0;8;0;63;0;192;1;61;0;255;1
3;0;85;0;34;0;255;1;62;0;192;1;61;0;255;1
3;0;72;0;34;0;241;1;62;0;192;1;61;0;255;1
3;0;58;0;34;0;228;1;62;0;192;1;60;0;255;1
3;0;44;0;34;0;210;1;62;0;192;1;60;0;255;1
3;0;30;0;34;0;198;1;62;0;192;1;61;0;255;1
3;0;28;0;34;0;180;1;62;0;192;1;61;0;255;1
3;0;7;0;34;0;171;1;62;0;192;1;61;0;255;1
3;0;244;1;33;0;151;1;62;0;192;1;61;0;255;1
3;0;226;1;33;0;139;1;62;0;192;1;60;0;255;1
3;0;215;1;33;0;117;0;62;0;192;1;61;0;255;1
3;0;184;1;33;0;94;0;62;0;192;1;61;0;255;1
3;0;168;1;33;0;69;0;62;0;192;1;60;0;255;1
3;0;132;1;33;0;43;0;62;0;192;1;61;0;255;1
3;0;116;0;33;0;14;0;62;0;192;1;61;0;255;1
3;0;79;0;33;0;242;1;61;0;192;1;60;0;255;1
3;0;59;0;33;0;215;1;61;0;192;1;61;0;255;1
3;0;22;0;33;0;186;1;61;0;192;1;60;0;255;1
3;0;249;1;32;0;157;1;61;0;192;1;61;0;255;1
3;0;220;1;32;0;127;0;61;0;192;1;60;0;255;1
3;0;194;1;32;0;95;0;61;0;192;1;60;0;255;1
3;0;164;1;32;0;64;0;61;0;192;1;60;0;255;1
3;0;141;1;32;0;31;0;61;0;192;1;61;0;255;1
3;0;99;0;32;0;255;1;60;0;192;1;60;0;255;1
3;0;64;0;32;0;222;1;60;0;192;1;61;0;255;1
3;0;25;0;32;0;190;1;60;0;192;1;61;0;255;1
3;0;5;0;32;0;154;1;60;0;192;1;60;0;255;1
3;0;214;1;31;0;123;0;60;0;192;1;61;0;255;1
3;0;178;1;31;0;89;0;60;0;192;1;61;0;255;1
3;0;133;1;31;0;55;0;60;0;192;1;61;0;255;1
3;0;125;0;31;0;18;0;60;0;192;1;61;0;255;1
3;0;84;0;31;0;241;1;59;0;192;1;61;0;255;1
3;0;36;0;31;0;209;1;59;0;192;1;61;0;255;1
3;0;2;0;31;0;173;1;59;0;192;1;61;0;255;1
3;0;241;1;30;0;137;1;59;0;192;1;61;0;255;1
3;0;188;1;30;0;107;0;59;0;192;1;61;0;255;1
3;0;166;1;30;0;71;0;59;0;192;1;61;0;255;1
3;0;116;0;30;0;42;0;59;0;192;1;61;0;255;1
3;0;98;0;30;0;6;0;59;0;192;1;61;0;255;1
3;0;45;0;30;0;233;1;58;0;192;1;61;0;255;1
3;0;33;0;30;0;194;1;58;0;192;1;61;0;255;1
3;0;247;1;29;0;162;1;58;0;192;1;61;0;255;1
3;0;224;1;29;0;127;0;58;0;192;1;61;0;255;1
3;0;164;1;29;0;98;0;58;0;192;1;61;0;255;1
3;0;156;1;29;0;58;0;58;0;192;1;61;0;255;1
3;0;111;0;29;0;47;0;58;0;192;1;61;0;255;1
3;0;113;0;29;0;17;0;58;0;193;1;18;0;255;1
3;0;107;0;29;0;254;1;57;0;192;1;17;0;255;1
3;0;115;0;29;0;226;1;57;0;192;1;17;0;255;1
3;0;102;0;29;0;165;1;57;0;161;1;17;0;133;1
3;0;214;1;28;0;220;1;56;0;167;1;61;0;95;0
3;0;187;1;28;0;217;1;56;0;128;1;61;0;131;1
3;0;193;1;28;0;199;1;56;0;192;1;60;0;255;1
3;0;200;1;28;0;195;1;56;0;128;1;61;0;107;0
3;0;170;1;28;0;194;1;56;0;128;1;62;0;180;1
3;0;170;1;28;0;185;1;56;0;128;1;61;0;95;0
3;0;155;1;28;0;178;1;56;0;128;1;60;0;147;1
3;0;152;1;28;0;170;1;56;0;128;1;61;0;101;0
3;0;152;1;28;0;161;1;56;0;128;1;61;0;148;1
3;0;118;0;28;0;161;1;56;0;128;1;61;0;133;1
3;0;138;1;28;0;146;1;56;0;128;1;61;0;80;0
3;0;234;1;27;0;70;0;55;0;72;0;61;0;53;0
3;0;225;1;27;0;59;0;55;0;72;0;61;0;22;0
3;0;210;1;27;0;47;0;55;0;72;0;61;0;21;0
3;0;195;1;27;0;33;0;55;0;72;0;61;0;19;0
3;0;179;1;27;0;18;0;55;0;72;0;61;0;25;0
2;0;38;0;0;0;3;0;56;0;160;1;61;0;29;0
3;0;11;0;28;0;38;0;56;0;161;1;17;0;188;1
3;0;255;1;27;0;39;0;56;0;160;1;17;0;111;0
3;0;246;1;27;0;49;0;56;0;224;1;16;0;255;1
3;0;230;1;27;0;43;0;56;0;160;1;16;0;175;1
3;0;223;1;27;0;65;0;56;0;160;1;16;0;198;1
3;0;21;0;28;0;221;1;56;0;231;1;61;0;255;1
3;0;10;0;28;0;225;1;56;0;192;1;62;0;255;1
3;0;17;0;28;0;221;1;56;0;192;1;62;0;255;1
3;0;9;0;28;0;224;1;56;0;192;1;62;0;255;1
3;0;9;0;28;0;223;1;56;0;192;1;61;0;255;1
3;0;8;0;28;0;220;1;56;0;192;1;61;0;255;1
3;0;6;0;28;0;215;1;56;0;192;1;61;0;255;1
3;0;255;1;27;0;209;1;56;0;192;1;61;0;255;1
3;0;0;0;28;0;200;1;56;0;192;1;61;0;255;1
3;0;240;1;27;0;193;1;56;0;192;1;61;0;255;1
3;0;231;1;27;0;182;1;56;0;192;1;61;0;255;1
3;0;219;1;27;0;171;1;56;0;192;1;61;0;211;1
3;0;209;1;27;0;158;1;56;0;192;1;61;0;203;1
3;0;193;1;27;0;141;1;56;0;128;1;61;0;175;1
3;0;182;1;27;0;125;0;56;0;192;1;61;0;225;1
3;0;159;1;27;0;111;0;56;0;192;1;61;0;208;1
3;0;147;1;27;0;93;0;56;0;192;1;62;0;255;1
3;0;124;0;27;0;78;0;56;0;128;1;61;0;216;1
3;0;115;0;27;0;58;0;56;0;192;1;61;0;243;1
3;0;87;0;27;0;44;0;56;0;192;1;60;0;255;1
3;0;78;0;27;0;23;0;56;0;192;1;61;0;255;1
3;0;53;0;27;0;5;0;56;0;192;1;61;0;255;1
3;0;38;0;27;0;237;1;55;0;192;1;61;0;255;1
3;0;10;0;27;0;215;1;55;0;192;1;61;0;255;1
3;0;242;1;26;0;191;1;55;0;192;1;61;0;255;1
3;0;217;1;26;0;166;1;55;0;192;1;61;0;255;1
3;0;204;1;26;0;137;1;55;0;192;1;61;0;255;1
3;0;172;1;26;0;116;0;55;0;192;1;61;0;255;1
3;0;154;1;26;0;88;0;55;0;192;1;61;0;255;1
3;0;117;0;26;0;67;0;55;0;192;1;62;0;255;1
3;0;94;0;26;0;38;0;55;0;192;1;61;0;255;1
3;0;62;0;26;0;11;0;55;0;192;1;61;0;255;1
3;0;33;0;26;0;235;1;54;0;192;1;61;0;255;1
3;0;4;0;26;0;205;1;54;0;192;1;61;0;255;1
3;0;219;1;25;0;180;1;54;0;192;1;61;0;255;1
3;0;202;1;25;0;148;1;54;0;192;1;61;0;255;1
3;0;186;1;25;0;116;0;54;0;192;1;61;0;255;1
3;0;150;1;25;0;93;0;54;0;192;1;61;0;255;1
3;0;133;1;25;0;62;0;54;0;192;1;61;0;255;1
3;0;94;0;25;0;41;0;54;0;128;1;60;0;255;1
3;0;73;0;25;0;5;0;54;0;128;1;61;0;218;1
3;0;38;0;25;0;233;1;53;0;128;1;61;0;191;1
3;0;13;0;25;0;205;1;53;0;128;1;62;0;192;1
3;0;236;1;24;0;180;1;53;0;128;1;62;0;243;1
3;0;218;1;24;0;150;1;53;0;128;1;62;0;170;1
3;0;187;1;24;0;130;1;53;0;128;1;61;0;169;1
3;0;170;1;24;0;103;0;53;0;192;1;61;0;255;1
3;0;138;1;24;0;82;0;53;0;192;1;61;0;252;1
3;0;114;0;24;0;58;0;53;0;192;1;61;0;255;1
3;0;93;0;24;0;33;0;53;0;192;1;61;0;255;1
3;0;73;0;24;0;3;0;53;0;128;1;61;0;255;1
3;0;48;0;24;0;234;1;52;0;192;1;61;0;255;1
3;0;14;0;24;0;211;1;52;0;128;1;61;0;255;1
3;0;247;1;23;0;184;1;52;0;192;1;61;0;255;1
3;0;209;1;23;0;165;1;52;0;192;1;62;0;255;1
3;0;195;1;23;0;136;1;52;0;192;1;62;0;255;1
3;0;168;1;23;0;113;0;52;0;192;1;62;0;255;1
3;0;147;1;23;0;89;0;52;0;192;1;62;0;255;1
3;0;132;1;23;0;61;0;52;0;192;1;61;0;255;1
3;0;99;0;23;0;42;0;52;0;192;1;61;0;255;1
3;0;87;0;23;0;18;0;52;0;192;1;61;0;255;1
3;0;64;0;23;0;1;0;52;0;192;1;61;0;255;1
3;0;53;0;23;0;235;1;51;0;192;1;61;0;255;1
3;0;29;0;23;0;223;1;51;0;192;1;61;0;255;1
3;0;19;0;23;0;203;1;51;0;192;1;61;0;255;1
3;0;255;1;22;0;190;1;51;0;192;1;61;0;255;1
3;0;236;1;22;0;171;1;51;0;192;1;61;0;255;1
3;0;218;1;22;0;154;1;51;0;192;1;61;0;255;1
3;0;197;1;22;0;134;1;51;0;192;1;62;0;255;1
3;0;179;1;22;0;116;0;51;0;192;1;62;0;255;1
3;0;156;1;22;0;95;0;51;0;192;1;62;0;255;1
3;0;141;1;22;0;75;0;51;0;192;1;62;0;255;1
3;0;126;0;22;0;50;0;51;0;192;1;61;0;255;1
3;0;102;0;22;0;33;0;51;0;192;1;61;0;255;1
3;0;72;0;22;0;22;0;51;0;192;1;61;0;255;1
3;0;66;0;22;0;252;1;50;0;192;1;61;0;255;1
3;0;54;0;22;0;225;1;50;0;192;1;61;0;255;1
3;0;25;0;22;0;209;1;50;0;192;1;61;0;255;1
3;0;13;0;22;0;182;1;50;0;192;1;61;0;255;1
3;0;242;1;21;0;168;1;50;0;192;1;61;0;255;1
3;0;232;1;21;0;145;1;50;0;192;1;61;0;255;1
3;0;213;1;21;0;135;1;50;0;192;1;61;0;255;1
3;0;210;1;21;0;125;0;50;0;192;1;62;0;255;1
3;0;201;1;21;0;128;1;50;0;192;1;62;0;255;1
3;0;200;1;21;0;127;0;50;0;192;1;62;0;255;1
3;0;200;1;21;0;126;0;50;0;192;1;61;0;255;1
3;0;197;1;21;0;123;0;50;0;192;1;61;0;255;1
3;0;199;1;21;0;113;0;50;0;192;1;61;0;255;1
3;0;192;1;21;0;106;0;50;0;192;1;61;0;255;1
3;0;166;1;21;0;112;0;50;0;192;1;61;0;255;1
3;0;176;1;21;0;93;0;50;0;192;1;61;0;255;1
3;0;167;1;21;0;95;0;50;0;192;1;61;0;255;1
3;0;171;1;21;0;88;0;50;0;192;1;61;0;255;1
3;0;164;1;21;0;91;0;50;0;192;1;61;0;255;1
3;0;153;1;21;0;97;0;50;0;192;1;61;0;255;1
3;0;158;1;21;0;91;0;50;0;192;1;62;0;255;1
3;0;161;1;21;0;82;0;50;0;192;1;62;0;255;1
3;0;149;1;21;0;81;0;50;0;192;1;62;0;255;1
3;0;150;1;21;0;71;0;50;0;192;1;62;0;255;1
3;0;139;1;21;0;70;0;50;0;192;1;61;0;255;1
3;0;143;1;21;0;62;0;50;0;192;1;61;0;255;1
3;0;135;1;21;0;65;0;50;0;192;1;61;0;255;1
3;0;141;1;21;0;61;0;50;0;192;1;61;0;255;1
3;0;135;1;21;0;65;0;50;0;192;1;61;0;255;1
3;0;140;1;21;0;59;0;50;0;192;1;61;0;255;1
3;0;131;1;21;0;61;0;50;0;192;1;61;0;255;1
3;0;131;1;21;0;55;0;50;0;192;1;61;0;255;1
3;0;128;1;21;0;52;0;50;0;192;1;61;0;255;1
3;0;127;0;21;0;50;0;50;0;192;1;61;0;255;1
3;0;120;0;21;0;54;0;50;0;192;1;62;0;255;1
3;0;122;0;21;0;51;0;50;0;192;1;62;0;255;1
3;0;122;0;21;0;51;0;50;0;192;1;62;0;255;1
3;0;123;0;21;0;52;0;50;0;192;1;62;0;255;1
3;0;123;0;21;0;52;0;50;0;192;1;61;0;255;1
3;0;114;0;21;0;60;0;50;0;192;1;61;0;255;1
3;0;124;0;21;0;53;0;50;0;192;1;61;0;255;1
3;0;121;0;21;0;56;0;50;0;192;1;61;0;255;1
3;0;121;0;21;0;56;0;50;0;192;1;61;0;255;1
3;0;122;0;21;0;57;0;50;0;192;1;61;0;255;1
3;0;110;0;21;0;67;0;50;0;192;1;61;0;255;1
3;0;104;0;21;0;72;0;50;0;192;1;61;0;255;1
3;0;89;0;21;0;86;0;50;0;192;1;61;0;255;1
3;0;74;0;21;0;99;0;50;0;192;1;62;0;255;1
3;0;62;0;21;0;110;0;50;0;192;1;62;0;255;1
3;0;57;0;21;0;116;0;50;0;192;1;62;0;255;1
3;0;41;0;21;0;135;1;50;0;192;1;62;0;255;1
3;0;28;0;21;0;150;1;50;0;192;1;61;0;255;1
3;0;16;0;21;0;166;1;50;0;192;1;61;0;255;1
3;0;0;0;21;0;185;1;50;0;192;1;61;0;255;1
3;0;237;1;20;0;205;1;50;0;192;1;61;0;255;1
3;0;222;1;20;0;225;1;50;0;192;1;61;0;255;1
3;0;202;1;20;0;250;1;50;0;192;1;61;0;255;1
3;0;194;1;20;0;9;0;51;0;192;1;61;0;255;1
3;0;171;1;20;0;37;0;51;0;192;1;61;0;255;1
3;0;154;1;20;0;60;0;51;0;192;1;61;0;255;1
3;0;136;1;20;0;89;0;51;0;192;1;62;0;255;1
3;0;121;0;20;0;114;0;51;0;192;1;62;0;255;1
3;0;107;0;20;0;140;1;51;0;192;1;62;0;255;1
3;0;95;0;20;0;162;1;51;0;192;1;62;0;255;1
3;0;68;0;20;0;193;1;51;0;192;1;61;0;255;1
3;0;51;0;20;0;216;1;51;0;192;1;61;0;255;1
3;0;24;0;20;0;245;1;51;0;192;1;60;0;255;1
3;0;11;0;20;0;6;0;52;0;192;1;61;0;255;1
3;0;240;1;19;0;34;0;52;0;192;1;61;0;255;1
3;0;215;1;19;0;61;0;52;0;192;1;61;0;255;1
3;0;186;1;19;0;89;0;52;0;192;1;61;0;255;1
3;0;180;1;19;0;100;0;52;0;192;1;61;0;255;1
3;0;156;1;19;0;122;0;52;0;192;1;61;0;255;1
3;0;131;1;19;0;142;1;52;0;192;1;61;0;255;1
3;0;102;0;19;0;163;1;52;0;192;1;62;0;255;1
3;0;82;0;19;0;176;1;52;0;192;1;62;0;255;1
3;0;49;0;19;0;200;1;52;0;192;1;62;0;255;1
3;0;29;0;19;0;213;1;52;0;192;1;62;0;255;1
3;0;238;1;18;0;244;1;52;0;192;1;62;0;255;1
3;0;230;1;18;0;247;1;52;0;192;1;61;0;255;1
3;0;190;1;18;0;13;0;53;0;192;1;61;0;255;1
3;0;159;1;18;0;32;0;53;0;192;1;61;0;255;1
3;0;127;0;18;0;50;0;53;0;192;1;61;0;255;1
3;0;104;0;18;0;60;0;53;0;192;1;61;0;255;1
3;0;70;0;18;0;82;0;53;0;192;1;61;0;255;1
3;0;41;0;18;0;98;0;53;0;192;1;60;0;255;1
3;0;14;0;18;0;115;0;53;0;192;1;61;0;255;1
3;0;244;1;17;0;134;1;53;0;192;1;61;0;255;1
3;0;210;1;17;0;157;1;53;0;192;1;61;0;255;1
3;0;189;1;17;0;175;1;53;0;192;1;62;0;255;1
3;0;154;1;17;0;202;1;53;0;192;1;62;0;255;1
3;0;135;1;17;0;222;1;53;0;192;1;61;0;255;1
3;0;98;0;17;0;253;1;53;0;192;1;62;0;255;1
3;0;71;0;17;0;27;0;54;0;192;1;61;0;255;1
3;0;56;0;17;0;47;0;54;0;192;1;60;0;255;1
3;0;23;0;17;0;81;0;54;0;192;1;61;0;255;1
3;0;252;1;16;0;111;0;54;0;192;1;61;0;255;1
3;0;251;1;16;0;122;0;54;0;192;1;61;0;255;1
3;0;220;1;16;0;154;1;54;0;192;1;61;0;255;1
3;0;193;1;16;0;183;1;54;0;192;1;60;0;255;1
3;0;152;1;16;0;221;1;54;0;192;1;61;0;255;1
3;0;148;1;16;0;235;1;54;0;192;1;62;0;255;1
3;0;121;0;16;0;9;0;55;0;192;1;62;0;255;1
3;0;111;0;16;0;28;0;55;0;192;1;62;0;255;1
3;0;85;0;16;0;59;0;55;0;192;1;62;0;255;1
3;0;68;0;16;0;82;0;55;0;192;1;62;0;255;1
3;0;38;0;16;0;115;0;55;0;192;1;62;0;255;1
3;0;14;0;16;0;142;1;55;0;192;1;61;0;255;1
3;0;243;1;15;0;171;1;55;0;192;1;61;0;255;1
3;0;221;1;15;0;195;1;55;0;192;1;61;0;255;1
3;0;186;1;15;0;228;1;55;0;192;1;61;0;255;1
3;0;164;1;15;0;252;1;55;0;192;1;61;0;255;1
3;0;132;1;15;0;25;0;56;0;192;1;61;0;255;1
3;0;103;0;15;0;53;0;56;0;192;1;61;0;255;1
3;0;74;0;15;0;81;0;56;0;192;1;62;0;255;1
3;0;45;0;15;0;108;0;56;0;192;1;62;0;255;1
3;0;12;0;15;0;138;1;56;0;192;1;62;0;255;1
3;0;246;1;14;0;161;1;56;0;192;1;62;0;255;1
3;0;210;1;14;0;193;1;56;0;192;1;62;0;255;1
3;0;188;1;14;0;216;1;56;0;192;1;62;0;255;1
3;0;154;1;14;0;244;1;56;0;192;1;61;0;255;1
3;0;134;1;14;0;7;0;57;0;192;1;61;0;255;1
3;0;99;0;14;0;35;0;57;0;192;1;61;0;255;1
3;0;74;0;14;0;55;0;57;0;192;1;61;0;255;1
3;0;40;0;14;0;83;0;57;0;192;1;60;0;255;1
3;0;19;0;14;0;101;0;57;0;192;1;61;0;255;1
3;0;237;1;13;0;131;1;57;0;192;1;60;0;255;1
3;0;206;1;13;0;156;1;57;0;192;1;61;0;255;1
3;0;185;1;13;0;174;1;57;0;192;1;62;0;255;1
3;0;150;1;13;0;201;1;57;0;192;1;62;0;255;1
3;0;134;1;13;0;214;1;57;0;192;1;62;0;255;1
3;0;96;0;13;0;243;1;57;0;192;1;62;0;255;1
3;0;83;0;13;0;3;0;58;0;192;1;62;0;255;1
3;0;56;0;13;0;26;0;58;0;192;1;62;0;255;1
3;0;30;0;13;0;51;0;58;0;192;1;61;0;255;1
3;0;8;0;13;0;74;0;58;0;192;1;61;0;255;1
3;0;241;1;12;0;97;0;58;0;192;1;61;0;255;1
3;0;226;1;12;0;116;0;58;0;192;1;61;0;255;1
3;0;186;1;12;0;150;1;58;0;192;1;61;0;255;1
3;0;183;1;12;0;165;1;58;0;192;1;61;0;255;1
3;0;152;1;12;0;196;1;58;0;192;1;61;0;255;1
3;0;129;1;12;0;225;1;58;0;128;1;61;0;255;1
3;0;73;0;12;0;32;0;59;0;129;1;62;0;255;1
3;0;55;0;12;0;55;0;59;0;128;1;62;0;178;1
3;0;25;0;12;0;81;0;59;0;128;1;62;0;209;1
3;0;4;0;12;0;100;0;59;0;128;1;62;0;128;1
3;0;238;1;11;0;117;0;59;0;128;1;62;0;161;1
3;0;208;1;11;0;137;1;59;0;128;1;61;0;153;1
3;0;182;1;11;0;156;1;59;0;128;1;61;0;183;1
3;0;178;1;11;0;164;1;59;0;128;1;60;0;141;1
3;0;149;1;11;0;185;1;59;0;128;1;61;0;118;0
3;0;120;0;11;0;207;1;59;0;128;1;61;0;156;1
3;0;95;0;11;0;226;1;59;0;128;1;61;0;108;0
3;0;92;0;11;0;236;1;59;0;128;1;61;0;90;0
3;0;61;0;11;0;5;0;60;0;128;1;62;0;99;0
3;0;30;0;11;0;30;0;60;0;128;1;62;0;58;0
3;0;26;0;11;0;44;0;60;0;128;1;62;0;68;0
3;0;16;0;11;0;63;0;60;0;128;1;62;0;67;0
3;0;243;1;10;0;91;0;60;0;128;1;62;0;65;0
3;0;222;1;10;0;116;0;60;0;128;1;62;0;50;0
3;0;201;1;10;0;141;1;60;0;128;1;61;0;61;0
3;0;187;1;10;0;162;1;60;0;128;1;61;0;85;0
3;0;162;1;10;0;188;1;60;0;128;1;61;0;45;0
3;0;146;1;10;0;207;1;60;0;128;1;61;0;73;0
3;0;123;0;10;0;228;1;60;0;128;1;61;0;49;0
3;0;114;0;10;0;243;1;60;0;128;1;61;0;42;0
3;0;85;0;10;0;9;0;61;0;128;1;61;0;47;0
3;0;65;0;10;0;28;0;61;0;128;1;61;0;43;0
3;0;41;0;10;0;49;0;61;0;128;1;62;0;36;0
3;0;13;0;10;0;72;0;61;0;128;1;62;0;31;0
3;0;1;0;10;0;89;0;61;0;128;1;62;0;28;0
3;0;224;1;9;0;93;0;61;0;128;1;62;0;17;0
3;0;223;1;9;0;124;0;61;0;160;1;62;0;19;0
3;0;213;1;9;0;137;1;61;0;128;1;62;0;17;0
3;0;169;1;9;0;126;0;61;0;128;1;61;0;17;0
3;0;161;1;9;0;142;1;61;0;160;1;61;0;20;0
3;0;136;1;9;0;156;1;61;0;160;1;61;0;19;0
3;0;128;1;9;0;159;1;61;0;160;1;60;0;21;0
3;0;100;0;9;0;168;1;61;0;160;1;61;0;23;0
3;0;88;0;9;0;167;1;61;0;160;1;61;0;41;0
3;0;71;0;9;0;190;1;61;0;160;1;61;0;36;0
3;0;59;0;9;0;200;1;61;0;160;1;61;0;30;0
3;0;42;0;9;0;205;1;61;0;160;1;62;0;33;0
3;0;42;0;9;0;211;1;61;0;160;1;62;0;32;0
3;0;26;0;9;0;211;1;61;0;160;1;62;0;39;0
3;0;20;0;9;0;235;1;61;0;160;1;62;0;37;0
3;0;4;0;9;0;235;1;61;0;160;1;62;0;41;0
3;0;230;1;8;0;255;1;61;0;160;1;62;0;36;0
3;0;226;1;8;0;0;0;62;0;160;1;61;0;39;0
3;0;204;1;8;0;18;0;62;0;160;1;61;0;39;0
3;0;204;1;8;0;18;0;62;0;160;1;61;0;34;0
3;0;184;1;8;0;24;0;62;0;160;1;61;0;23;0
3;0;170;1;8;0;39;0;62;0;160;1;61;0;18;0
3;0;181;1;8;0;46;0;62;0;160;1;61;0;22;0
3;0;155;1;8;0;58;0;62;0;160;1;61;0;31;0
3;0;161;1;8;0;78;0;62;0;160;1;62;0;47;0
3;0;143;1;8;0;87;0;62;0;128;1;62;0;60;0
3;0;159;1;8;0;89;0;62;0;128;1;62;0;82;0
3;0;143;1;8;0;100;0;62;0;128;1;62;0;139;1
3;0;140;1;8;0;103;0;62;0;128;1;62;0;36;0
3;0;121;0;8;0;125;0;62;0;160;1;61;0;63;0
3;0;127;0;8;0;138;1;62;0;128;1;61;0;255;1
3;0;112;0;8;0;158;1;62;0;128;1;61;0;255;1
3;0;103;0;8;0;172;1;62;0;128;1;60;0;251;1
3;0;93;0;8;0;186;1;62;0;160;1;61;0;203;1
3;0;96;0;8;0;196;1;62;0;128;1;61;0;75;0
3;0;76;0;8;0;210;1;62;0;128;1;61;0;27;0
3;0;64;0;8;0;221;1;62;0;128;1;60;0;85;0
3;0;53;0;8;0;232;1;62;0;128;1;60;0;152;1
3;0;46;0;8;0;243;1;62;0;128;1;62;0;255;1
3;0;26;0;8;0;0;0;63;0;128;1;62;0;255;1
3;0;14;0;8;0;11;0;63;0;128;1;62;0;255;1
3;0;0;0;8;0;19;0;63;0;128;1;61;0;245;1
3;0;222;1;7;0;28;0;63;0;129;1;62;0;23;0
3;0;208;1;7;0;42;0;63;0;160;1;61;0;19;0
3;0;192;1;7;0;61;0;63;0;160;1;61;0;23;0
3;0;186;1;7;0;79;0;63;0;160;1;61;0;51;0
3;0;177;1;7;0;94;0;63;0;128;1;61;0;115;0
3;0;156;1;7;0;112;0;63;0;128;1;61;0;182;1
3;0;149;1;7;0;130;1;63;0;128;1;61;0;255;1
3;0;106;0;7;0;152;1;63;0;128;1;61;0;255;1
3;0;110;0;7;0;171;1;63;0;128;1;61;0;255;1
3;0;87;0;7;0;195;1;63;0;128;1;62;0;255;1
3;0;69;0;7;0;217;1;63;0;128;1;62;0;236;1
3;0;50;0;7;0;239;1;63;0;128;1;62;0;203;1
3;0;20;0;7;0;2;0;64;0;128;1;62;0;163;1
3;0;14;0;7;0;22;0;64;0;128;1;62;0;255;1
3;0;7;0;7;0;40;0;64;0;128;1;62;0;183;1
3;0;231;1;6;0;58;0;64;0;128;1;60;0;183;1
3;0;215;1;6;0;76;0;64;0;128;1;61;0;146;1
3;0;199;1;6;0;95;0;64;0;128;1;61;0;212;1
3;0;187;1;6;0;115;0;64;0;128;1;61;0;179;1
3;0;151;1;6;0;132;1;64;0;128;1;60;0;181;1
3;0;145;1;6;0;153;1;64;0;128;1;61;0;177;1
3;0;108;0;6;0;169;1;64;0;128;1;60;0;149;1
3;0;102;0;6;0;189;1;64;0;192;1;62;0;205;1
3;0;70;0;6;0;206;1;64;0;192;1;62;0;138;1
3;0;63;0;6;0;226;1;64;0;128;1;62;0;68;0
3;0;29;0;6;0;239;1;64;0;128;1;62;0;27;0
3;0;21;0;6;0;0;0;65;0;128;1;61;0;29;0
3;0;246;1;5;0;11;0;65;0;128;1;62;0;38;0
3;0;220;1;5;0;23;0;65;0;128;1;61;0;86;0
3;0;212;1;5;0;40;0;65;0;128;1;61;0;99;0
3;0;204;1;5;0;59;0;65;0;192;1;61;0;255;1
3;0;185;1;5;0;75;0;65;0;192;1;61;0;223;1
3;0;166;1;5;0;90;0;65;0;192;1;61;0;255;1
3;0;142;1;5;0;103;0;65;0;192;1;61;0;255;1
3;0;133;1;5;0;121;0;65;0;192;1;61;0;255;1
3;0;104;0;5;0;135;1;65;0;192;1;61;0;209;1
3;0;92;0;5;0;157;1;65;0;192;1;62;0;253;1
3;0;61;0;5;0;174;1;65;0;128;1;62;0;73;0
3;0;41;0;5;0;198;1;65;0;128;1;62;0;32;0
3;0;22;0;5;0;225;1;65;0;128;1;62;0;18;0
3;0;226;1;4;0;248;1;65;0;160;1;62;0;28;0
3;0;208;1;4;0;22;0;66;0;160;1;62;0;54;0
3;0;198;1;4;0;46;0;66;0;160;1;61;0;48;0
3;0;177;1;4;0;64;0;66;0;160;1;60;0;31;0
3;0;197;1;4;0;84;0;66;0;160;1;60;0;37;0
3;0;170;1;4;0;91;0;66;0;128;1;61;0;26;0
3;0;153;1;4;0;132;1;66;0;160;1;61;0;28;0
2;0;28;0;0;0;2;0;0;0;0;0;0;0;0;0
3;0;100;0;4;0;158;1;66;0;160;1;61;0;64;0
3;0;74;0;4;0;168;1;66;0;128;1;62;0;66;0
3;0;68;0;4;0;195;1;66;0;128;1;62;0;24;0
3;0;65;0;4;0;225;1;66;0;160;1;62;0;44;0
3;0;57;0;4;0;251;1;66;0;160;1;62;0;58;0
3;0;43;0;4;0;15;0;67;0;160;1;62;0;64;0
3;0;26;0;4;0;30;0;67;0;160;1;61;0;68;0
3;0;13;0;4;0;49;0;67;0;160;1;61;0;41;0
3;0;7;0;4;0;80;0;67;0;128;1;61;0;39;0
3;0;254;1;3;0;96;0;67;0;128;1;61;0;53;0
3;0;250;1;3;0;121;0;67;0;160;1;61;0;140;1
3;0;229;1;3;0;145;1;67;0;160;1;61;0;34;0
3;0;250;1;3;0;175;1;67;0;160;1;61;0;24;0
3;0;10;0;4;0;199;1;67;0;224;1;61;0;255;1
2;0;37;0;0;0;1;0;0;0;0;0;0;0;0;0
3;0;242;1;3;0;38;0;68;0;224;1;60;0;201;1
3;0;13;0;4;0;76;0;68;0;192;1;16;0;255;1
3;0;18;0;4;0;78;0;68;0;192;1;17;0;255;1
3;0;21;0;4;0;81;0;68;0;192;1;16;0;255;1
3;0;36;0;4;0;63;0;68;0;192;1;16;0;255;1
3;0;57;0;4;0;58;0;68;0;128;1;17;0;63;0
3;0;28;0;4;0;66;0;68;0;128;1;17;0;171;1
2;0;1;0;0;0;2;0;0;0;0;0;0;0;0;0
3;0;35;0;21;0;176;1;68;0;160;1;61;0;21;0
3;0;202;1;21;0;78;0;62;0;160;1;61;0;25;0
